<svg xmlns="http://www.w3.org/2000/svg" width="64" height="64" viewBox="0 0 64 64">
	<style>
		line { stroke: #eee; stroke-width: 2px; }
	</style>
	<line x1="10" y1="10" x2="54" y2="54" />
	<line x1="10" y1="54" x2="54" y2="10" />
</svg>